module be01gofire

go 1.14

require (
	cloud.google.com/go v0.70.0 // indirect
	cloud.google.com/go/firestore v1.3.0
	cloud.google.com/go/storage v1.12.0 // indirect
	firebase.google.com/go v3.13.0+incompatible
	github.com/gin-gonic/gin v1.6.3
	github.com/go-playground/validator/v10 v10.4.1 // indirect
	github.com/golang/protobuf v1.4.3 // indirect
	github.com/googleapis/gax-go v1.0.3 // indirect
	github.com/json-iterator/go v1.1.10 // indirect
	github.com/modern-go/concurrent v0.0.0-20180306012644-bacd9c7ef1dd // indirect
	github.com/modern-go/reflect2 v1.0.1 // indirect
	github.com/ugorji/go v1.1.13 // indirect
	golang.org/x/crypto v0.0.0-20201016220609-9e8e0b390897 // indirect
	golang.org/x/net v0.0.0-20201031054903-ff519b6c9102 // indirect
	golang.org/x/sys v0.0.0-20201101102859-da207088b7d1 // indirect
	golang.org/x/text v0.3.4 // indirect
	golang.org/x/tools v0.0.0-20201102012620-51cde5226ead // indirect
	google.golang.org/api v0.34.0
	google.golang.org/appengine v1.6.7 // indirect
	google.golang.org/genproto v0.0.0-20201030142918-24207fddd1c3 // indirect
	google.golang.org/grpc v1.33.1 // indirect
	google.golang.org/protobuf v1.25.0 // indirect
	gopkg.in/yaml.v2 v2.3.0 // indirect
	gorm.io/driver/mysql v1.0.3
	gorm.io/gorm v1.20.5
)
